<?xml version="1.0" encoding="UTF-8" standalone="no"?>
<!-- Created with Inkscape (http://www.inkscape.org/) -->

<svg
   xmlns:dc="http://purl.org/dc/elements/1.1/"
   xmlns:cc="http://creativecommons.org/ns#"
   xmlns:rdf="http://www.w3.org/1999/02/22-rdf-syntax-ns#"
   xmlns:svg="http://www.w3.org/2000/svg"
   xmlns="http://www.w3.org/2000/svg"
   xmlns:sodipodi="http://sodipodi.sourceforge.net/DTD/sodipodi-0.dtd"
   xmlns:inkscape="http://www.inkscape.org/namespaces/inkscape"
   width="30"
   height="540"
   id="svg2"
   version="1.1"
   inkscape:version="0.48.4 r9939"
   sodipodi:docname="mur.svg"
   inkscape:export-filename="/var/www/html/inf5071/tp1.git/assets/mur.png"
   inkscape:export-xdpi="90"
   inkscape:export-ydpi="90">
  <defs
     id="defs4" />
  <sodipodi:namedview
     id="base"
     pagecolor="#ffffff"
     bordercolor="#666666"
     borderopacity="1.0"
     inkscape:pageopacity="0.0"
     inkscape:pageshadow="2"
     inkscape:zoom="1.1055556"
     inkscape:cx="-145.1005"
     inkscape:cy="268.30269"
     inkscape:document-units="px"
     inkscape:current-layer="svg2"
     showgrid="false"
     inkscape:snap-page="true"
     inkscape:window-width="1301"
     inkscape:window-height="744"
     inkscape:window-x="65"
     inkscape:window-y="24"
     inkscape:window-maximized="1" />
  <metadata
     id="metadata7">
    <rdf:RDF>
      <cc:Work
         rdf:about="">
        <dc:format>image/svg+xml</dc:format>
        <dc:type
           rdf:resource="http://purl.org/dc/dcmitype/StillImage" />
        <dc:title></dc:title>
      </cc:Work>
    </rdf:RDF>
  </metadata>
  <g
     inkscape:label="Layer 1"
     inkscape:groupmode="layer"
     id="layer1"
     transform="translate(0,-512.36218)" />
  <path
     style="fill:#008000;fill-opacity:1;stroke:#4f3100;stroke-width:1;stroke-linecap:round;stroke-linejoin:miter;stroke-miterlimit:4;stroke-opacity:1;stroke-dasharray:none;stroke-dashoffset:0"
     id="path3885"
     d="m -3.2361822,544.27827 c 0.7593349,-1.87132 1.5913399,-3.68202 2.200483,-5.61525 0.91594096,-2.89768 1.21662804,-5.91911 1.3875277,-8.93712 0.0501328,-2.43419 0.45778829,-4.83855 0.7133747,-7.25512 0.216416,-2.19286 0.2469121,-4.39719 0.3129863,-6.59797 -0.032266,-2.6913 0.1101733,-5.39365 -0.098476,-8.07899 -0.28408038,-2.75861 -0.71794452,-5.50462 -1.28358454,-8.21893 -0.67006122,-3.18904 -1.53651696,-6.33525 -2.48415166,-9.45252 -1.3504384,-4.11274 -2.6693278,-8.22975 -4.125861,-12.3068 -1.5666592,-4.55041 -2.6245558,-9.2423 -3.65882,-13.93484 -0.92128,-4.33698 -1.703123,-8.70194 -2.452865,-13.07121 -0.824221,-5.07868 -0.935173,-10.22829 -1.030487,-15.3605 0.03212,-6.7383 0.887431,-13.42831 1.777479,-20.09572 0.83005,-5.85416 1.751816,-11.6936 2.5388757,-17.55431 0.7422314,-5.46115 1.530856,-10.91786 2.1407599,-16.39573 0.3948353,-4.90507 0.9911504,-9.78887 1.3094338,-14.70037 0.5677508,-5.83132 0.9122058,-11.67696 1.0966519,-17.53191 0.4113753,-6.49853 0.7733121,-12.9976 0.9146791,-19.50816 0.318388,-6.18575 0.6889677,-12.36895 1.1284971,-18.54735 0.5394148,-6.21321 0.6091453,-12.45122 0.9110232,-18.67665 0.3279568,-6.14118 0.5141525,-12.28504 0.96125902,-18.41933 0.35870718,-6.06223 0.71954296,-12.12415 1.05453225,-18.1879 0.35762969,-5.25068 0.48979345,-10.51168 0.56154712,-15.77283 0.0362816,-5.4992 0.015169,-10.99892 0.0252294,-16.49847 C 0.83382012,218.05319 1.2927166,212.55575 1.2837101,207.04484 1.1065064,201.58259 0.88092491,196.1228 0.76233275,190.6587 0.41954551,184.89539 0.21400951,179.12279 -0.15156225,173.36128 -0.6169126,167.78931 -0.91899391,162.21414 -1.04868,156.6248 c -0.1434564,-5.23128 -0.2131522,-10.47089 -0.024285,-15.70143 0.24360617,-4.94264 0.48548745,-9.88208 0.88820795,-14.8144 0.32523099,-4.56465 0.74907639,-9.11962 1.13829522,-13.67898 C 1.6433186,106.95864 2.0154582,101.46178 2.2658183,95.955606 2.4266291,90.874882 2.4243504,85.790936 2.4427192,80.708216 2.4786058,75.335931 2.3825495,69.962934 2.5761758,64.593339 2.852641,59.415848 3.0917523,54.237335 3.2303911,49.054216 3.3193145,44.170428 3.3383799,39.285015 3.3183175,34.40045 3.3602505,30.464929 2.9723783,26.537838 2.3708245,22.652952 2.0287032,19.438241 1.1451432,16.32775 0.45183935,13.18203 -0.28713861,10.504684 -0.81989969,7.7778828 -1.3479644,5.0530589 c -0.29149,-1.3732312 -0.440784,-2.7696093 -0.6007378,-4.16229973 0,0 11.6608416,-6.09645237 11.6608416,-6.09645237 l 0,0 c 0.1299588,1.3597274 0.2684207,2.7192566 0.5363606,4.060645 0.553249,2.7164161 1.031064,5.4491689 1.762139,8.1259699 0.66697,3.1869733 1.552768,6.3339723 1.886849,9.5834613 0.56387,3.97237 0.991844,7.97515 0.886554,11.99538 -0.02944,4.902781 -0.02064,9.805519 -0.127398,14.707596 -0.115108,5.204482 -0.374007,10.401244 -0.72784,15.595102 -0.208675,5.340312 -0.02809,10.686732 -0.0682,16.030377 0.0019,5.108609 -0.02029,10.218195 -0.215821,15.323795 -0.203559,5.5082 -0.641031,11.001807 -1.220771,16.483117 -0.336246,4.55821 -0.693413,9.11441 -1.077545,13.66789 -0.514076,4.92403 -0.695912,9.87039 -1.029632,14.80895 -0.224423,5.21037 -0.02324,10.42462 -0.03064,15.63837 0.139346,5.57644 0.381136,11.15185 0.824649,16.71311 0.402627,5.76796 0.56363,11.55125 1.001069,17.31793 0.109037,5.46809 0.313228,10.9324 0.534065,16.39698 0.0866,5.52373 -0.478191,11.01461 -0.632244,16.53362 0.01524,5.50593 0.0076,11.01123 -0.03223,16.51696 -0.03341,5.2774 -0.0436,10.56338 -0.487356,15.8261 -0.556641,6.06794 -0.817879,12.14378 -1.141394,18.22693 -0.4184673,6.14277 -0.7267437,12.29024 -1.0653079,18.43811 -0.2797034,6.22329 -0.230475,12.46222 -0.8099448,18.67146 -0.5362142,6.16159 -0.7609653,12.33807 -1.192314,18.50753 -0.2242554,6.5037 -0.4876861,13.00519 -0.8941048,19.50061 -0.1680551,5.83514 -0.4238131,11.66591 -0.9245902,17.48341 -0.2441755,4.95791 -0.8574327,9.86385 -1.375279,14.79822 -0.5192319,5.50434 -1.3370427,10.97136 -2.1537942,16.43813 -0.7249571,5.90484 -1.68252129,11.76774 -2.66207034,17.63391 -0.99110366,6.56566 -1.71941006,13.1777 -1.70022806,19.8273 0.1200247,5.0495 0.2773741,10.1171 1.0883362,15.11231 0.76545424,4.35303 1.57502876,8.69844 2.3741647,13.04489 1.0394807,4.63172 2.0444706,9.27753 3.6215652,13.76536 1.5029843,4.07189 2.8092719,8.20561 4.2277862,12.30608 1.055032,3.11726 2.027477,6.26896 2.678091,9.49843 0.593379,2.75174 1.078607,5.53378 1.418606,8.32776 0.266645,2.72754 0.046,5.47439 0.112489,8.21152 0.03923,2.22233 0.06062,4.45144 -0.155804,6.66636 -0.259694,2.42093 -0.772919,4.81563 -0.836851,7.25233 -0.211089,3.09005 -0.454071,6.19517 -1.247881,9.20059 -0.522884,1.87084 -0.9647498,3.76261 -1.9759171,5.44335 0,0 -12.1158931,5.80402 -12.1158931,5.80402 z"
     inkscape:connector-curvature="0" />
  <path
     style="fill:#008000;fill-opacity:1;stroke:#4f3100;stroke-width:1;stroke-linecap:round;stroke-linejoin:miter;stroke-miterlimit:4;stroke-opacity:1;stroke-dasharray:none;stroke-dashoffset:0"
     id="path3887"
     d="m 5.8609045,545.00073 c 0.7890277,-3.52913 1.1481786,-7.12477 1.6370769,-10.70066 0.5121791,-3.28005 0.8742078,-6.58105 1.0329723,-9.89683 0.1545943,-3.39692 0.1470392,-6.79969 0.1221417,-10.19939 -0.023362,-3.57194 -0.8260998,-7.02537 -1.7053523,-10.46423 0,0 11.1587479,-6.07811 11.1587479,-6.07811 l 0,0 c 1.069496,3.45944 2.119014,6.9505 2.208667,10.60053 -0.02624,3.41813 -0.02576,6.8365 -0.09614,10.25421 -0.152964,3.376 -0.449213,6.72832 -1.06653,10.05678 -0.543662,3.49924 -0.925873,7.03613 -1.279412,10.55501 0,0 -12.0121715,5.87269 -12.0121715,5.87269 z"
     inkscape:connector-curvature="0" />
  <path
     style="fill:#008000;fill-opacity:1;stroke:#4f3100;stroke-width:1;stroke-linecap:round;stroke-linejoin:miter;stroke-miterlimit:4;stroke-opacity:1;stroke-dasharray:none;stroke-dashoffset:0"
     id="path3889"
     d="m 2.2190466,433.84021 c 0.8481256,-4.09077 1.4675935,-8.22642 2.1626748,-12.34553 0.9825284,-5.64601 1.7977228,-11.30447 2.1917881,-17.02294 0.3725125,-5.6671 0.4256487,-11.34919 0.4894534,-17.02631 0.057599,-6.99116 -0.3489124,-13.97569 -0.8394787,-20.94644 -0.4519579,-7.19814 -1.0431298,-14.38884 -1.6558437,-21.57517 -0.6816167,-6.99999 -2.1275131,-13.89488 -3.62555719,-20.75703 -1.72696799,-7.96626 -3.55605101,-15.9116 -5.18751821,-23.89812 -1.6089705,-7.89572 -3.0620224,-15.81774 -4.3377038,-23.77375 -0.7989188,-5.06994 -1.6965693,-10.12155 -2.6287313,-15.16829 0,0 10.50808117,-5.61256 10.50808117,-5.61256 l 0,0 c 1.03362811,4.99676 2.02604433,10.00061 2.99725883,15.00989 1.3805881,7.92124 2.7606711,15.84034 4.3492018,23.72342 1.5627344,7.98447 3.4540922,15.89901 5.2592992,23.83132 1.542171,6.89123 3.122861,13.80007 3.832194,20.83787 0.588759,7.20815 0.932867,14.4369 1.556695,21.64331 0.507957,6.97727 1.023566,13.96732 1.00479,20.96667 0.0283,5.68003 0.09364,11.36759 -0.29512,17.03845 -0.530225,5.73292 -1.191552,11.44038 -2.148734,17.11886 -0.642117,4.01446 -1.29155,8.05335 -1.573043,12.10853 0,0 -12.0597064,5.84782 -12.0597064,5.84782 z"
     inkscape:connector-curvature="0" />
  <path
     style="fill:#00ff00;fill-opacity:1;stroke:#4f3100;stroke-width:1;stroke-linecap:round;stroke-linejoin:miter;stroke-miterlimit:4;stroke-opacity:1;stroke-dasharray:none;stroke-dashoffset:0"
     id="path3893"
     d="m -39.17764,488.71675 c 3.258527,-4.03712 6.320674,-8.23434 9.401474,-12.40854 4.286846,-5.77078 8.552289,-11.55792 12.704552,-17.4266 3.064505,-4.32972 5.427124,-9.04619 7.4233235,-13.94334 2.0642023,-5.8947 4.3763824,-11.68266 6.909551,-17.38963 2.41553196,-5.14974 4.6852008,-10.37997 6.6149078,-15.73237 1.917104,-5.41831 2.656937,-11.1454 3.313596,-16.82675 0.611459,-5.87259 0.702846,-11.76645 0.521543,-17.66152 -0.322603,-6.68233 -1.595062,-13.27514 -2.822848,-19.83881 -1.422304,-6.65533 -2.887891,-13.29723 -3.95590804,-20.02115 -1.0742008,-7.21516 -1.6679812,-14.49336 -2.14340676,-21.76924 -0.4164701,-9.535 -0.5577449,-19.0856 -0.4559991,-28.62898 0.2166482,-9.00375 0.3958055,-18.00698 0.89026636,-27.00036 0.3966209,-11.68771 1.4173635,-23.33788 2.28986854,-34.99649 0.435763,-9.07073 1.027907,-18.13248 1.514256,-27.20074 0,0 11.1679847,-5.60657 11.1679847,-5.60657 l 0,0 c -0.60739,9.2102 -1.693839,18.38131 -2.266581,27.59523 -0.817725,11.56342 -1.698237,23.12553 -1.815017,34.7234 -0.3446047,9.0001 -0.7096947,17.99867 -0.9754577,27.00212 -0.208197,9.47582 0.03331,18.96095 0.631081,28.4204 0.5406567,7.21139 1.2173437,14.42348 2.2966487,21.57574 0.970866,6.72935 2.43798,13.36028 3.89804,19.99765 1.285583,6.6089 2.493269,13.25935 2.952473,19.98471 0.268106,5.93743 0.336853,11.88255 -0.373606,17.79799 -0.618217,5.73151 -1.30047,11.52269 -3.065437,17.03178 -1.897947,5.44078 -4.331855,10.68222 -6.7476657,15.90882 -2.574807,5.64153 -4.878187,11.38804 -6.821487,17.28032 -1.90042254,5.04395 -4.2267036,9.89542 -7.3972087,14.28147 -4.2774394,5.80743 -8.5155286,11.64348 -12.7778016,17.46144 -2.882574,4.04176 -5.867509,8.01023 -8.624964,12.1409 0,0 -12.286178,5.24912 -12.286178,5.24912 z"
     inkscape:connector-curvature="0" />
  <path
     style="fill:#00ff00;fill-opacity:1;stroke:#4f3100;stroke-width:1;stroke-linecap:round;stroke-linejoin:miter;stroke-miterlimit:4;stroke-opacity:1;stroke-dasharray:none;stroke-dashoffset:0"
     id="path3895"
     d="m -11.060275,168.98496 c 2.0710993,-6.39451 3.8592157,-12.86999 5.5241051,-19.38005 1.8621252,-7.31135 3.209738,-14.74672 4.2385879,-22.21772 1.30694872,-8.12735 1.63357076,-16.35106 2.0752632,-24.55563 C 1.1269416,94.805626 1.9957807,86.817019 2.6633369,78.814742 3.2601409,71.206452 3.5489379,63.578901 3.1478915,55.955978 2.7701973,50.099167 1.8802599,44.297515 0.96199246,38.506943 c 0,0 10.76578554,-5.705353 10.76578554,-5.705353 l 0,0 c 0.961633,5.79762 1.929017,11.602216 2.440278,17.461142 0.458867,7.673381 0.225794,15.344889 -0.389738,23.00711 -0.696522,8.011879 -1.632844,16.004747 -2.014381,24.041929 -0.486645,8.203179 -0.626222,16.442969 -1.8993009,24.579329 -1.0348415,7.4947 -2.328613,14.97467 -4.1377378,22.32311 -1.6025883,6.36933 -3.5696652,12.65365 -4.87171598,19.09388 0,0 -11.91545732,5.67687 -11.91545732,5.67687 z"
     inkscape:connector-curvature="0" />
  <path
     style="fill:#00ff00;fill-opacity:1;stroke:#4f3100;stroke-width:1;stroke-linecap:round;stroke-linejoin:miter;stroke-miterlimit:4;stroke-opacity:1;stroke-dasharray:none;stroke-dashoffset:0"
     id="path3899"
     d="m 4.9563819,168.71933 c 1.354365,-5.53348 1.942778,-11.21385 2.415977,-16.87896 0.698618,-7.6005 0.377904,-15.2278 0.08307,-22.83782 -0.0886,-5.70392 -0.457587,-11.39134 -0.871824,-17.07819 -0.621584,-5.65705 -0.919403,-11.33188 -1.18027,-17.013706 -0.288872,-5.664214 -0.198575,-11.337236 -0.196312,-17.006148 -0.07705,-2.602275 0.0239,-5.203147 0.134878,-7.802303 0,0 11.5223891,-5.774662 11.5223891,-5.774662 l 0,0 c -0.235439,2.603548 -0.483608,5.211495 -0.383189,7.830457 0.01882,5.650438 0.104718,11.300336 0.203302,16.949895 0.175754,5.655691 0.606896,11.297837 1.282657,16.916547 0.379913,5.75235 0.600555,11.49649 0.619052,17.26306 0.180444,7.6603 0.490572,15.32971 -0.07353,22.98294 -0.381415,5.53874 -0.89993,11.06196 -1.54403,16.5762 0,0 -12.0121721,5.87269 -12.0121721,5.87269 z"
     inkscape:connector-curvature="0" />
  <path
     style="fill:#00ff00;fill-opacity:1;stroke:#4f3100;stroke-width:1;stroke-linecap:round;stroke-linejoin:miter;stroke-miterlimit:4;stroke-opacity:1;stroke-dasharray:none;stroke-dashoffset:0"
     id="path3901"
     d="m 24.967369,144.03056 c -0.491051,3.5445 -0.745061,7.11245 -1.171044,10.66477 -0.452059,5.25827 -1.362556,10.43182 -2.562269,15.56533 -1.594449,7.13608 -3.962493,14.04656 -6.47873,20.89977 -2.255601,5.9855 -5.1646084,11.68427 -7.9497609,17.43128 -0.3171496,0.64007 -0.6342992,1.28014 -0.9514487,1.92021 0,0 -11.775948,5.30724 -11.775948,5.30724 l 0,0 c 0.3503778,-0.64793 0.7007556,-1.29587 1.0511334,-1.94381 2.9485145,-5.74367 6.0265131,-11.43916 8.3662721,-17.46943 2.4997145,-6.77263 4.8616295,-13.60329 6.374929,-20.67598 1.1463871,-5.04129 1.9180461,-10.13194 2.3268331,-15.28844 0.365896,-3.43512 0.706712,-6.86953 0.825245,-10.32477 0,0 11.944788,-6.08617 11.944788,-6.08617 z"
     inkscape:connector-curvature="0" />
  <path
     style="fill:#00ff00;fill-opacity:1;stroke:#4f3100;stroke-width:1;stroke-linecap:round;stroke-linejoin:miter;stroke-miterlimit:4;stroke-opacity:1;stroke-dasharray:none;stroke-dashoffset:0"
     id="path3903"
     d="m 15.956903,276.23846 c 0.381755,5.72022 0.913105,11.43068 1.361544,17.14645 0.538486,7.96757 0.858372,15.95758 0.733054,23.94337 -0.199972,6.61679 -1.010148,13.17651 -2.012472,19.71156 0,0 -11.0661706,5.43495 -11.0661706,5.43495 l 0,0 c 0.9272,-6.48724 1.778844,-12.98711 2.034889,-19.54296 0.144418,-7.94631 -0.101063,-15.89897 -0.690979,-23.82523 -0.494839,-5.57538 -1.123017,-11.14009 -2.157782,-16.64437 0,0 11.7979166,-6.22377 11.7979166,-6.22377 z"
     inkscape:connector-curvature="0" />
  <path
     style="fill:#00ff00;fill-opacity:1;stroke:#4f3100;stroke-width:1;stroke-linecap:round;stroke-linejoin:miter;stroke-miterlimit:4;stroke-opacity:1;stroke-dasharray:none;stroke-dashoffset:0"
     id="path3905"
     d="m 21.349279,456.09086 c -0.277542,5.2719 -0.420271,10.55049 -0.654673,15.82521 -0.548912,7.34155 -1.02805,14.68732 -1.584928,22.02817 -0.407013,6.50431 -1.386544,12.92269 -2.770426,19.28397 -0.743602,3.19357 -1.563055,6.36835 -2.38878,9.54138 0,0 -11.3777079,5.42382 -11.3777079,5.42382 l 0,0 c 0.8805321,-3.14027 1.6594041,-6.29933 2.3896864,-9.47827 1.4347631,-6.32693 2.4671909,-12.72267 2.9933275,-19.19381 0.5570928,-7.32568 1.0433643,-14.65549 1.5882864,-21.98182 0.1967475,-5.12196 0.2812082,-10.24764 -0.1395741,-15.36248 0,0 11.9447887,-6.08617 11.9447887,-6.08617 z"
     inkscape:connector-curvature="0" />
  <path
     style="fill:#808000;fill-opacity:1;stroke:#4f3100;stroke-width:1;stroke-linecap:round;stroke-linejoin:miter;stroke-miterlimit:4;stroke-opacity:1;stroke-dasharray:none;stroke-dashoffset:0"
     id="path3913"
     d="m 3.146816,554.99706 c 1.0497432,-1.66119 2.1436132,-3.28028 3.0316469,-5.03827 0.955106,-1.80954 1.740743,-3.70208 2.479061,-5.60878 0.854092,-2.59244 1.240458,-5.27734 1.5081981,-7.98255 0.20203,-3.00082 0.337297,-6.01912 0.197067,-9.02519 -0.185882,-4.76185 -1.3215631,-9.41638 -2.1949891,-14.0844 -1.278985,-6.79984 -2.86289,-13.53643 -4.4720187,-20.26407 -0.7656487,-3.38269 -1.7182184,-6.71824 -2.6214295,-10.06559 0,0 11.0876393,-6.00219 11.0876393,-6.00219 l 0,0 c 0.811688,3.3881 1.678416,6.76146 2.506052,10.14569 1.63647,6.71718 3.259089,13.43888 4.694344,20.20255 0.982025,4.65809 2.190934,9.29272 2.639282,14.04155 0.255599,3.06794 0.04369,6.14252 -0.11887,9.21223 -0.219105,2.75111 -0.510898,5.50015 -1.213684,8.17512 -0.531459,1.91882 -1.549003,4.00964 -2.460111,5.77613 -0.762914,1.75377 -1.644881,3.48045 -2.832582,4.98471 0,0 -12.229606,5.53306 -12.229606,5.53306 z"
     inkscape:connector-curvature="0" />
  <path
     style="fill:#00ff00;fill-opacity:1;stroke:#4f3100;stroke-width:1;stroke-linecap:round;stroke-linejoin:miter;stroke-miterlimit:4;stroke-opacity:1;stroke-dasharray:none;stroke-dashoffset:0"
     id="path3915"
     d="m -9.3283935,483.28961 c 2.5960075,-2.96661 4.9967137,-6.0907 7.3299477,-9.26548 3.129688,-4.37504 5.4259119,-9.25257 7.5990198,-14.15065 1.525798,-3.77677 3.7154489,-7.19889 5.993824,-10.55153 1.4045,-1.98297 2.719191,-4.02601 3.776301,-6.21567 1.652369,-2.80065 1.38538,-5.0857 1.009944,-8.21134 -0.722888,-5.06882 -1.88645,-10.06031 -2.94124,-15.06703 -0.799172,-4.24121 -1.757421,-8.44806 -2.572547,-12.68623 -0.371676,-2.19663 -0.9368659,-4.3521 -1.4885792,-6.50809 0,0 11.3769192,-6.14474 11.3769192,-6.14474 l 0,0 c 0.510412,2.18869 1.069682,4.36636 1.502957,6.57229 0.821709,4.23971 1.803757,8.44738 2.541516,12.70395 0.87978,5.05573 2.037272,10.05553 3.03382,15.08841 0.525065,3.1767 1.321138,5.82562 -0.441167,8.75583 -0.979056,2.32332 -2.267447,4.47842 -3.797554,6.48457 -2.343836,3.35092 -4.769518,6.65227 -6.372058,10.45117 -2.154077,4.95992 -4.475982,9.87323 -7.4736465,14.38885 -2.1805947,3.09888 -4.4375986,6.13745 -6.791279,9.10657 0,0 -12.286178,5.24912 -12.286178,5.24912 z"
     inkscape:connector-curvature="0" />
  <path
     style="fill:#808000;fill-opacity:1;stroke:#4f3100;stroke-width:1;stroke-linecap:round;stroke-linejoin:miter;stroke-miterlimit:4;stroke-opacity:1;stroke-dasharray:none;stroke-dashoffset:0"
     id="path3917"
     d="m -0.47127445,462.73575 c 2.08216605,-3.34298 4.02031525,-6.77049 6.00408785,-10.17232 2.5150574,-4.24815 5.1082606,-8.45405 7.4778286,-12.78592 1.285066,-2.33026 2.443486,-4.73017 3.802336,-7.01971 0,0 12.206574,-5.42442 12.206574,-5.42442 l 0,0 c -1.394131,2.40044 -3.030412,4.66899 -4.24854,7.17954 -2.401335,4.33256 -4.981064,8.56358 -7.498684,12.82906 -1.894219,3.25667 -3.710861,6.5535 -5.513996,9.86071 0,0 -12.22960645,5.53306 -12.22960645,5.53306 z"
     inkscape:connector-curvature="0" />
  <path
     style="fill:#808000;fill-opacity:1;stroke:#4f3100;stroke-width:1;stroke-linecap:round;stroke-linejoin:miter;stroke-miterlimit:4;stroke-opacity:1;stroke-dasharray:none;stroke-dashoffset:0"
     id="path3919"
     d="m -2.2803197,399.41917 c 1.5021299,-2.9979 1.98084069,-6.38433 2.59225699,-9.64794 0.65231878,-4.01721 1.08605471,-8.07088 1.51011761,-12.11838 0.4728969,-5.17802 0.5610718,-10.38126 0.6487823,-15.57704 0.2410464,-6.29296 -0.079251,-12.56286 -0.7504271,-18.8179 -0.3052866,-2.48739 -1.0668005,-4.86107 -1.85281087,-7.22599 0,0 11.26568777,-6.1939 11.26568777,-6.1939 l 0,0 c 0.787767,2.47279 1.546234,4.95507 1.837896,7.54801 0.561294,6.29866 0.952239,12.61228 0.807892,18.94065 -0.0048,5.19491 -0.0089,10.39429 -0.40577,15.57763 -0.347603,4.07952 -0.770669,8.16136 -1.411958,12.2046 -0.631515,3.26834 -1.090253,6.57456 -2.0120605,9.7772 0,0 -12.2296062,5.53306 -12.2296062,5.53306 z"
     inkscape:connector-curvature="0" />
  <path
     style="fill:#808000;fill-opacity:1;stroke:#4f3100;stroke-width:1;stroke-linecap:round;stroke-linejoin:miter;stroke-miterlimit:4;stroke-opacity:1;stroke-dasharray:none;stroke-dashoffset:0"
     id="path3921"
     d="m 3.2402026,241.801 c 1.5117163,-5.1908 2.0827369,-10.60071 2.7090328,-15.95384 0.9362026,-7.31907 0.9235277,-14.68085 0.7036004,-22.0392 -0.4324647,-6.79077 -1.084717,-13.56511 -2.0284747,-20.3036 -1.0760913,-7.52442 -2.7689585,-14.93939 -4.5060362,-22.33299 -0.7633305,-3.3402 -1.7615811,-6.61797 -2.7496748,-9.89615 0,0 11.0629622,-6.03919 11.0629622,-6.03919 l 0,0 c 0.9436483,3.32851 1.8637257,6.66364 2.6275117,10.0393 1.739093,7.42215 3.418878,14.8641 4.619771,22.39592 1.001752,6.77662 1.789517,13.59435 2.079442,20.44196 0.161796,7.39701 0.278406,14.80248 -0.580017,22.16899 -0.561976,5.27529 -1.092335,10.55457 -1.895284,15.79904 0,0 -12.0428334,5.71976 -12.0428334,5.71976 z"
     inkscape:connector-curvature="0" />
  <path
     style="fill:#808000;fill-opacity:1;stroke:#4f3100;stroke-width:1;stroke-linecap:round;stroke-linejoin:miter;stroke-miterlimit:4;stroke-opacity:1;stroke-dasharray:none;stroke-dashoffset:0"
     id="path3923"
     d="m 6.0015615,15.670268 c 2.3030184,-3.97094 3.721153,-8.3572149 5.1577945,-12.6927186 1.425368,-4.5970889 2.454104,-9.2896365 3.189195,-14.0413954 0,0 11.478775,-5.629205 11.478775,-5.629205 l 0,0 c -0.742595,4.830869 -1.888399,9.5738396 -3.219969,14.2762277 -1.304137,4.250191 -2.574889,8.5392926 -4.442152,12.5838753 0,0 -12.1636435,5.503216 -12.1636435,5.503216 z"
     inkscape:connector-curvature="0" />
  <path
     style="fill:#808000;fill-opacity:1;stroke:#4f3100;stroke-width:1;stroke-linecap:round;stroke-linejoin:miter;stroke-miterlimit:4;stroke-opacity:1;stroke-dasharray:none;stroke-dashoffset:0"
     id="path3925"
     d="m -7.7814393,31.446828 c 0.018761,-0.330611 0.037522,-0.661222 0.056283,-0.991834 0,0 11.8322218,-6.028818 11.8322218,-6.028818 l 0,0 c 0.018761,0.311493 0.037522,0.622986 0.056283,0.934478 0,0 -11.9447882,6.086174 -11.9447882,6.086174 z"
     inkscape:connector-curvature="0" />
  <path
     style="fill:#88aa00;fill-opacity:1;stroke:#4f3100;stroke-width:1;stroke-linecap:round;stroke-linejoin:miter;stroke-miterlimit:4;stroke-opacity:1;stroke-dasharray:none;stroke-dashoffset:0"
     id="path3927"
     d="m -14.017392,87.210991 c 1.134876,-4.849885 2.216111,-9.711535 3.300991,-14.573246 1.3331604,-5.404269 1.8793756,-10.930632 2.1663716,-16.474192 0.2937473,-5.777409 -0.186717,-11.552708 -0.6738408,-17.304975 -0.6724717,-5.384224 -0.8523208,-10.783114 -0.6476187,-16.198662 0.1947537,-4.214493 0.1207126,-8.439313 0.5893798,-12.635546 0.3727468,-2.9676251 0.5497035,-5.9524971 0.6282397,-8.9407319 0,0 11.7730841,-5.9464791 11.7730841,-5.9464791 l 0,0 c -0.1338499,3.0371178 -0.331499,6.0716015 -0.6959104,9.09087 -0.4995055,4.2197893 -0.7801106,8.451368 -0.9535737,12.699622 -0.145889,5.370534 0.014134,10.724513 0.5534336,16.074483 0.5362672,5.793247 1.0136854,11.617744 0.7929705,17.439781 -0.2582426,5.618908 -0.6795735,11.240131 -2.12861019,16.701211 -1.07570293,4.693372 -2.04252211,9.415153 -2.73514671,14.181384 0,0 -11.9697698,5.886481 -11.9697698,5.886481 z"
     inkscape:connector-curvature="0" />
  <path
     style="fill:#88aa00;fill-opacity:1;stroke:#4f3100;stroke-width:1;stroke-linecap:round;stroke-linejoin:miter;stroke-miterlimit:4;stroke-opacity:1;stroke-dasharray:none;stroke-dashoffset:0"
     id="path3931"
     d="m 12.253315,406.46129 c -0.555959,2.18671 -0.706635,4.44487 -0.822699,6.68959 -0.132856,2.7785 -0.171672,5.55973 -0.157154,8.34106 0.04788,2.50566 0.05334,5.00939 -0.0022,7.51471 -0.07659,4.31103 -0.125571,8.62252 -0.116448,12.93427 -0.04094,4.36268 0.134278,8.72958 -0.04365,13.08948 -0.202811,3.9239 -0.584233,7.82351 -1.221891,11.6999 -0.630331,4.17711 -1.3059521,8.35502 -2.2474526,12.47448 -0.7504714,3.6157 -1.4130331,7.24456 -2.3659796,10.81428 -0.856425,3.30236 -2.5503488,6.24586 -4.33210598,9.12014 -2.17095412,3.34649 -4.32416472,6.70384 -6.43479572,10.08865 -0.8018786,1.34862 -1.5975902,2.70083 -2.3996412,4.04934 0,0 -11.9823879,5.31945 -11.9823879,5.31945 l 0,0 c 0.813964,-1.3823 1.661853,-2.74281 2.474861,-4.12572 2.163045,-3.36346 4.278299,-6.75706 6.471138,-10.10176 1.757438,-2.73927 3.4072989,-5.57759 4.3426055,-8.71654 1.0804597,-3.55814 1.9153878,-7.16942 2.5786215,-10.83036 0.8868932,-4.11181 1.7059997,-8.24625 2.3297288,-12.40506 0.4678064,-3.84923 0.980193,-7.6881 1.20290757,-11.5626 0.29289665,-4.35124 0.0942385,-8.71842 0.1726222,-13.0768 0.008704,-4.2713 -0.0392824,-8.54237 -0.12032585,-12.81286 -0.0596719,-2.5041 -0.0590135,-5.0069 -0.0102713,-7.51146 0.0230411,-2.78896 -0.0314153,-5.57812 0.0583875,-8.36606 0.12013205,-2.26448 0.26500112,-4.52961 0.5664235,-6.77831 0,0 12.05970664,-5.84782 12.05970664,-5.84782 z"
     inkscape:connector-curvature="0" />
  <path
     style="fill:#88aa00;fill-opacity:1;stroke:#4f3100;stroke-width:1;stroke-linecap:round;stroke-linejoin:miter;stroke-miterlimit:4;stroke-opacity:1;stroke-dasharray:none;stroke-dashoffset:0"
     id="path3933"
     d="m -4.9268726,435.45742 c 1.5839747,-3.90291 2.6185234,-7.99557 3.8248802,-12.0238 1.41682561,-4.35086 2.7107678,-8.73669 3.9872327,-13.13001 0.9696969,-3.40336 1.9556796,-6.80111 2.8495237,-10.22546 0.467879,-2.2836 0.2291859,-1.10802 0.7153273,-3.52691 0,0 11.6954587,-5.68438 11.6954587,-5.68438 l 0,0 c -0.433611,2.40992 -0.225574,1.22547 -0.625142,3.55315 -0.777811,3.51186 -1.99292,6.90402 -2.98291,10.35923 -1.305071,4.41027 -2.518944,8.84046 -4.072545,13.17454 -1.1515772,3.9277 -2.1526392,7.8936 -3.2962492,11.82311 0,0 -12.0955764,5.68053 -12.0955764,5.68053 z"
     inkscape:connector-curvature="0" />
  <path
     style="fill:#88aa00;fill-opacity:1;stroke:#4f3100;stroke-width:1;stroke-linecap:round;stroke-linejoin:miter;stroke-miterlimit:4;stroke-opacity:1;stroke-dasharray:none;stroke-dashoffset:0"
     id="path3937"
     d="m -15.848159,331.57997 c 1.206747,-2.03582 2.603749,-3.94875 3.76796,-6.00926 1.074203,-1.95973 2.2684907,-3.84556 3.3009042,-5.82798 1.0685675,-2.28002 2.1908067,-4.51073 3.0135111,-6.8935 1.3125851,-3.95923 2.7197719,-7.88933 4.1858814,-11.79412 1.11602117,-3.00506 2.19454417,-6.03652 3.7032755,-8.87169 1.5304894,-2.25314 3.1463128,-4.43529 4.6015839,-6.74081 1.5224856,-2.33056 2.2338941,-4.94039 2.6014535,-7.6638 0.4712878,-3.67651 0.2164668,-7.36136 -0.088606,-11.03604 C 8.962377,263.23945 8.7414963,259.72845 8.6838654,256.21428 8.4797394,252.73871 8.1952702,249.26259 7.6896431,245.81681 7.0780199,242.2197 6.2569039,238.66643 5.4498967,235.10976 4.9753379,233.32098 4.4486779,231.54703 3.950617,229.76473 c 0,0 11.416577,-6.21497 11.416577,-6.21497 l 0,0 c 0.505213,1.8036 1.085111,3.58379 1.531213,5.40348 0.801915,3.58604 1.680462,7.15508 2.348251,10.77011 0.471228,3.49958 0.778332,7.01071 1.082718,10.52896 0.07766,3.50332 0.118906,7.00913 0.431478,10.5023 0.289198,3.72121 0.615395,7.44355 0.366106,11.17897 -0.271944,2.90154 -0.920514,5.68947 -2.41776,8.23058 -1.43112,2.26223 -2.812476,4.55417 -4.46241,6.66757 -1.89688,2.6406 -2.927475,5.80147 -4.138215,8.78911 -1.4532831,3.84118 -2.8089603,7.72561 -4.0433856,11.64274 -0.095031,0.34328 -0.6619224,2.43483 -0.8226512,2.86059 -0.5469469,1.44882 -1.5297892,2.69654 -2.003892,4.17652 -0.9572662,2.03038 -2.0520183,3.97991 -3.27973971,5.85982 -1.03567319,2.06596 -2.36939999,3.92539 -3.57745919,5.88641 0,0 -12.2296063,5.53305 -12.2296063,5.53305 z"
     inkscape:connector-curvature="0" />
  <path
     style="fill:#44aa00;fill-opacity:1;stroke:#4f3100;stroke-width:1;stroke-linecap:round;stroke-linejoin:miter;stroke-miterlimit:4;stroke-opacity:1;stroke-dasharray:none;stroke-dashoffset:0"
     id="path3941"
     d="m -18.561727,120.82621 c 1.051989,-1.91439 1.791714,-3.96808 2.55934,-6.006 1.008707,-2.72897 2.057824,-5.44223 3.088325,-8.16288 1.000528,-2.79451 1.936409,-5.60187 2.786429,-8.445157 0.686773,-2.390061 1.5890525,-4.711674 2.4945291,-7.025551 1.1682548,-2.679892 2.1693597,-5.430192 3.1157736,-8.195158 0.9936148,-2.851087 1.8889737,-5.736134 2.7948095,-8.616215 0.93433852,-2.828107 2.06021403,-5.58842 3.0827577,-8.385697 1.0323502,-3.105894 2.0092345,-6.226093 2.9479005,-9.360913 1.0755082,-3.174467 1.8363303,-6.436085 2.6511474,-9.683215 0.7863618,-2.730111 1.2826408,-5.511672 1.5245958,-8.33839 C 9.0424994,34.555779 9.2875925,30.477583 9.467415,26.3952 9.5809636,22.153043 9.1530162,17.94257 9.2288112,13.698059 c 0.015373,-0.687778 0.030747,-1.375557 0.04612,-2.063336 0,0 11.5575558,-5.8409899 11.5575558,-5.8409899 l 0,0 c -0.02998,0.6885906 -0.05997,1.3771811 -0.08995,2.0657717 -0.0884,4.2510982 0.354269,8.4694272 0.252457,12.7178532 -0.133621,4.055009 -0.382521,8.107664 -0.765259,12.146901 -0.156784,2.933731 -0.585126,5.806505 -1.51515,8.607507 -0.887961,3.225753 -1.437305,6.540318 -2.542399,9.705037 -1.048652,3.112285 -1.948888,6.2743 -2.94977,9.402433 -0.935849,2.810902 -2.069506,5.545094 -3.08384,8.327393 -0.8545914,2.903696 -1.8417439,5.768689 -2.7678096,8.649538 -0.9322687,2.7712 -1.9337618,5.520343 -3.0096445,8.238961 -0.9858991,2.267926 -1.8062209,4.618291 -2.6104342,6.954437 -0.93902227,2.834458 -1.72299713,5.71762 -2.7724879,8.517615 -1.0146457,2.71834 -2.0624536,5.42375 -3.0489448,8.1527 -0.7757718,1.99743 -1.3705719,4.06319 -2.2613705,6.01327 0,0 -12.2296065,5.53306 -12.2296065,5.53306 z"
     inkscape:connector-curvature="0" />
  <path
     style="fill:#44aa00;fill-opacity:1;stroke:#4f3100;stroke-width:1;stroke-linecap:round;stroke-linejoin:miter;stroke-miterlimit:4;stroke-opacity:1;stroke-dasharray:none;stroke-dashoffset:0"
     id="path3943"
     d="m -2.2803197,480.82621 c 1.5745445,-2.63105 2.61146383,-5.51823 3.4315727,-8.45907 0.9686998,-3.24949 1.6958522,-6.56022 2.2667451,-9.90057 0.6070169,-3.00439 1.096527,-6.02552 1.3970751,-9.07557 0.1745131,-2.64646 0.1717129,-5.30119 0.1707863,-7.9523 -0.1909013,-3.18616 -0.5012073,-6.36256 -1.1369757,-9.49231 -0.7133797,-3.24263 -2.0048361,-6.3294 -3.21589214,-9.41158 -1.71867886,-3.95516 -3.07686746,-8.04945 -4.64649356,-12.06328 -1.7581312,-4.56787 -3.3478437,-9.19302 -5.1927131,-13.72733 -2.037605,-5.03998 -3.683372,-10.22728 -5.273368,-15.42234 -1.83118,-6.41358 -2.935969,-12.9834 -3.70986,-19.59764 -0.708727,-7.91433 -0.709545,-15.84889 -0.575241,-23.78458 0,0 11.2081793,-5.66217 11.2081793,-5.66217 l 0,0 c -0.4096968,7.88393 -0.5191498,15.78755 0.4292588,23.64417 0.7892949,6.51659 1.9513855,12.98753 3.7650694,19.30426 1.6428072,5.13905 3.33701185,10.26423 5.3444164,15.27491 1.7608995,4.56106 3.5293068,9.11844 5.3026994,13.67507 1.5551227,4.01224 2.8724327,8.11538 4.6678817,12.03155 1.303144,3.12773 2.809002,6.22512 3.397185,9.58737 0.639691,3.19 1.062156,6.41777 1.400054,9.65312 -0.01319,2.69386 -0.04646,5.38753 -0.203941,8.07777 -0.169233,3.11591 -0.771536,6.16054 -1.41374,9.21082 -0.535573,3.38164 -1.148543,6.76839 -2.225027,10.02488 -0.758339,2.91931 -1.649151,5.80805 -2.9580655,8.53176 0,0 -12.2296062,5.53306 -12.2296062,5.53306 z"
     inkscape:connector-curvature="0" />
  <path
     style="fill:#44aa00;fill-opacity:1;stroke:#4f3100;stroke-width:1;stroke-linecap:round;stroke-linejoin:miter;stroke-miterlimit:4;stroke-opacity:1;stroke-dasharray:none;stroke-dashoffset:0"
     id="path3945"
     d="M -0.33009676,282.50444 C 1.6350279,278.96297 3.2622494,275.24465 4.6403839,271.44007 6.6570635,265.72973 7.7280454,259.77247 8.6025753,253.79993 9.5106498,246.89506 9.6418761,239.92435 9.7652587,232.97116 9.9155415,226.1332 9.5195423,219.302 8.868988,212.49895 8.5189943,207.03491 7.0858436,201.82785 5.0641793,196.77454 4.7071759,195.98986 4.3501725,195.20518 3.9931691,194.4205 c 0,0 11.1293229,-6.29139 11.1293229,-6.29139 l 0,0 c 0.374822,0.79957 0.749643,1.59914 1.124464,2.39871 0.651206,1.61583 1.311531,3.15098 1.816954,4.82208 1.110853,3.67286 1.596389,7.51003 2.027046,11.30883 0.530541,6.86556 0.910955,13.75485 0.844049,20.64269 -0.09023,6.99236 -0.289615,13.99361 -1.064136,20.94917 -0.768211,6.00508 -1.759581,11.97501 -3.624249,17.75342 -1.232991,3.76016 -2.791091,7.38953 -4.413073,10.99721 0,0 -12.16364376,5.50322 -12.16364376,5.50322 z"
     inkscape:connector-curvature="0" />
  <path
     style="fill:#44aa00;fill-opacity:1;stroke:#4f3100;stroke-width:1;stroke-linecap:round;stroke-linejoin:miter;stroke-miterlimit:4;stroke-opacity:1;stroke-dasharray:none;stroke-dashoffset:0"
     id="path3947"
     d="m 9.5151024,127.09421 c 1.4615306,-4.10071 1.5773786,-8.57777 1.7679026,-12.88848 0.08225,-4.41011 -0.479538,-8.76499 -1.181759,-13.1047 0,0 11.377874,-6.039176 11.377874,-6.039176 l 0,0 c 0.781164,4.438689 1.436499,8.872486 1.202676,13.402156 -0.210029,4.34328 -0.314572,8.70701 -1.010344,13.00806 0,0 -12.1563496,5.62214 -12.1563496,5.62214 z"
     inkscape:connector-curvature="0" />
  <path
     style="fill:#7fff2a;fill-opacity:1;stroke:#4f3100;stroke-width:1;stroke-linecap:round;stroke-linejoin:miter;stroke-miterlimit:4;stroke-opacity:1;stroke-dasharray:none;stroke-dashoffset:0"
     id="path3949"
     d="m -5.8313952,49.226264 c 1.6830735,-4.014341 2.6563979,-8.262958 3.6149609,-12.493336 1.1974707,-5.310815 2.23981058,-10.680286 2.82362031,-16.096174 0.035176,-0.743628 0.0703521,-1.487256 0.10552808,-2.230885 0,0 11.51311691,-5.791349 11.51311691,-5.791349 l 0,0 c -0.04323,0.769646 -0.08646,1.539293 -0.129697,2.308939 -0.484753,5.479165 -1.825299,10.868102 -2.8408824,16.266745 -0.8425797,4.155656 -1.7454493,8.29895 -2.9910704,12.355526 0,0 -12.0955764,5.680534 -12.0955764,5.680534 z"
     inkscape:connector-curvature="0" />
  <path
     style="fill:#7fff2a;fill-opacity:1;stroke:#4f3100;stroke-width:1;stroke-linecap:round;stroke-linejoin:miter;stroke-miterlimit:4;stroke-opacity:1;stroke-dasharray:none;stroke-dashoffset:0"
     id="path3951"
     d="m -13.134591,548.6654 c 0.910675,-1.96392 1.958002,-3.84713 3.1424829,-5.65863 1.0553399,-1.49215 2.1202168,-2.9782 3.1462957,-4.49039 1.2445516,-1.87295 2.2884016,-3.86411 3.2960407,-5.87086 1.2007841,-2.675 2.2435889,-5.42902 2.99851925,-8.26305 0.75717709,-3.26282 1.44658956,-6.54432 2.10510525,-9.82893 0.4635217,-3.06325 0.9531628,-6.12459 1.2642309,-9.20848 0.2473255,-3.14602 0.586359,-6.30628 -0.00735,-9.4247 -0.1429196,-0.50462 -0.2858392,-1.00924 -0.4287587,-1.51385 0,0 11.4886999,-6.26117 11.4886999,-6.26117 l 0,0 c 0.152292,0.53194 0.304584,1.06388 0.456876,1.59581 0.792122,3.33236 0.46219,6.40531 0.202209,9.78514 -0.318037,3.10736 -0.72165,6.20282 -1.157649,9.29545 -0.65769,3.32103 -1.55202,6.58511 -2.16519,9.91818 -0.64001,2.91002 -1.5985022,5.71751 -2.7633833,8.46071 -0.9470561,2.03423 -1.9083481,4.06429 -3.1357216,5.94782 -0.9115709,1.62578 -2.0979439,3.05579 -3.1407482,4.59938 -1.30322097,1.602 -2.40759741,3.42228 -3.07205173,5.38451 0,0 -12.22960617,5.53306 -12.22960617,5.53306 z"
     inkscape:connector-curvature="0" />
  <path
     style="fill:#7fff2a;fill-opacity:1;stroke:#4f3100;stroke-width:1;stroke-linecap:round;stroke-linejoin:miter;stroke-miterlimit:4;stroke-opacity:1;stroke-dasharray:none;stroke-dashoffset:0"
     id="path3953"
     d="m -1.3990439,451.02614 c 0.61359872,-3.04903 0.96522582,-6.15584 1.32193507,-9.24578 0.61805614,-4.10904 1.09459543,-8.23613 1.61008923,-12.35876 0.4657345,-4.2983 0.8038675,-8.62464 0.6715694,-12.9497 -0.2544071,-3.43146 -0.5017109,-6.86433 -0.8796843,-10.28485 -0.36743056,-4.26364 -1.05089482,-8.4914 -1.72215623,-12.71548 -0.81204537,-4.38425 -1.47588807,-8.79345 -2.35663087,-13.16483 -0.1710702,-0.76988 -0.3421403,-1.53977 -0.5132105,-2.30965 0,0 11.3306548,-6.07719 11.3306548,-6.07719 l 0,0 c 0.1597854,0.77756 0.3195708,1.55512 0.4793562,2.33269 0.9571913,4.36908 1.7288741,8.77464 2.4952761,13.18057 0.572837,4.24132 1.391766,8.4474 1.817922,12.70835 0.426278,3.45488 0.735635,6.91401 0.910523,10.39256 0.146731,4.39887 -0.310276,8.79369 -0.687731,13.17258 -0.445401,4.11121 -0.856183,8.22695 -1.531789,12.30874 -0.312188,3.05397 -0.669747,6.10062 -0.886417,9.16293 0,0 -12.0597069,5.84782 -12.0597069,5.84782 z"
     inkscape:connector-curvature="0"
     inkscape:export-filename="/var/www/html/inf5071/tp1.git/assets/mur.png"
     inkscape:export-xdpi="90"
     inkscape:export-ydpi="90" />
</svg>
